{
    "name": "Global Information",
    "numberOfRequests": {
        "total": 11090,
        "ok": 589,
        "ko": 10501
    },
    "minResponseTime": {
        "total": 11,
        "ok": 11,
        "ko": 1043
    },
    "maxResponseTime": {
        "total": 60028,
        "ok": 972,
        "ko": 60028
    },
    "meanResponseTime": {
        "total": 56800,
        "ok": 142,
        "ko": 59978
    },
    "standardDeviation": {
        "total": 13465,
        "ok": 168,
        "ko": 1150
    },
    "percentiles1": {
        "total": 60001,
        "ok": 74,
        "ko": 60001
    },
    "percentiles2": {
        "total": 60001,
        "ok": 173,
        "ko": 60001
    },
    "percentiles3": {
        "total": 60002,
        "ok": 550,
        "ko": 60002
    },
    "percentiles4": {
        "total": 60005,
        "ok": 751,
        "ko": 60005
    },
    "group1": {
    "name": "t < 800 ms",
    "count": 585,
    "percentage": 5
},
    "group2": {
    "name": "800 ms < t < 1200 ms",
    "count": 4,
    "percentage": 0
},
    "group3": {
    "name": "t > 1200 ms",
    "count": 0,
    "percentage": 0
},
    "group4": {
    "name": "failed",
    "count": 10501,
    "percentage": 95
},
    "meanNumberOfRequestsPerSecond": {
        "total": 14.346701164294954,
        "ok": 0.7619663648124192,
        "ko": 13.584734799482536
    }
}