{
  "simulation": "distributedDB.distributedDbBuyProduct",
  "simulationId": "distributeddbbuyproduct",
  "start": 1582371895773,
  "description": "1 to 100 users over 3.5 mins",
  "scenarios": ["Simulation01"],
  "assertions": [

  ]
}