{
  "simulation": "sharedDB.sharedDbBuyProduct",
  "simulationId": "shareddbbuyproduct",
  "start": 1582373982803,
  "description": "1 to 500 over 5 minutes",
  "scenarios": ["SharedDBBuy1Product"],
  "assertions": [

  ]
}