{
  "simulation": "sharedDB.sharedDbBuyProduct",
  "simulationId": "shareddbbuyproduct",
  "start": 1582370506760,
  "description": "1 to 100 users over 3.5 minutes",
  "scenarios": ["SharedDBBuy1Product"],
  "assertions": [

  ]
}